EESchema Schematic File Version 2
LIBS:power
LIBS:device
LIBS:transistors
LIBS:conn
LIBS:linear
LIBS:regul
LIBS:74xx
LIBS:cmos4000
LIBS:adc-dac
LIBS:memory
LIBS:xilinx
LIBS:microcontrollers
LIBS:dsp
LIBS:microchip
LIBS:analog_switches
LIBS:motorola
LIBS:texas
LIBS:intel
LIBS:audio
LIBS:interface
LIBS:digital-audio
LIBS:philips
LIBS:display
LIBS:cypress
LIBS:siliconi
LIBS:opto
LIBS:atmel
LIBS:contrib
LIBS:valves
LIBS:NRF51822
LIBS:blueduino-cache
EELAYER 25 0
EELAYER END
$Descr A4 11693 8268
encoding utf-8
Sheet 1 2
Title ""
Date ""
Rev ""
Comp ""
Comment1 ""
Comment2 ""
Comment3 ""
Comment4 ""
$EndDescr
$Comp
L ATMEGA328-M IC2
U 1 1 56F9D2C3
P 2350 2850
F 0 "IC2" H 1600 4100 50  0000 L BNN
F 1 "ATMEGA328-M" H 2750 1450 50  0000 L BNN
F 2 "Housings_DFN_QFN:QFN-32-1EP_5x5mm_Pitch0.5mm" H 2600 1400 50  0000 C CIN
F 3 "" H 2350 2850 50  0000 C CNN
	1    2350 2850
	1    0    0    -1  
$EndComp
Text Label 3350 4050 0    60   ~ 0
MEGA_IO7
Text Label 3350 3950 0    60   ~ 0
MEGA_IO6
Text Label 3350 3850 0    60   ~ 0
MEGA_IO5
Text Label 3350 3750 0    60   ~ 0
MEGA_IO4
Text Label 3350 3650 0    60   ~ 0
MEGA_IO3
Text Label 3350 3450 0    60   ~ 0
MEGA_IO1/TX
Text Label 3350 3350 0    60   ~ 0
MEGA_IO0/RX
Text Label 3350 3200 0    60   ~ 0
MEGA_RST
Text Label 3350 3100 0    60   ~ 0
MEGA_ADC5/SCL
Text Label 3350 3000 0    60   ~ 0
MEGA_ADC4/SDA
Text Label 3350 2900 0    60   ~ 0
MEGA_ADC3
Text Label 3350 2800 0    60   ~ 0
MEGA_ADC2
Text Label 3350 2700 0    60   ~ 0
MEGA_ADC1
Text Label 3350 2600 0    60   ~ 0
MEGA_ADC0
Text Label 2250 1300 2    60   ~ 0
MEGA_IO13/SCK
Text Label 3350 2150 0    60   ~ 0
MEGA_IO12/MISO
Text Label 2750 1300 0    60   ~ 0
MEGA_IO11/MOSI
Text Label 3350 1950 0    60   ~ 0
MEGA_IO10/SS
Text Label 3350 1850 0    60   ~ 0
MEGA_IO9
Text Label 3350 1750 0    60   ~ 0
MEGA_IO8
Text Label 1450 2350 2    60   ~ 0
MEGA_AREF
$Comp
L GNDD #PWR01
U 1 1 56F9D99B
P 1400 4150
F 0 "#PWR01" H 1400 3900 50  0001 C CNN
F 1 "GNDD" H 1400 4000 50  0000 C CNN
F 2 "" H 1400 4150 50  0000 C CNN
F 3 "" H 1400 4150 50  0000 C CNN
	1    1400 4150
	1    0    0    -1  
$EndComp
$Comp
L VCC #PWR02
U 1 1 56F9DA10
P 1350 1650
F 0 "#PWR02" H 1350 1500 50  0001 C CNN
F 1 "VCC" H 1350 1800 50  0000 C CNN
F 2 "" H 1350 1650 50  0000 C CNN
F 3 "" H 1350 1650 50  0000 C CNN
	1    1350 1650
	1    0    0    -1  
$EndComp
$Comp
L C C1
U 1 1 56F9DA68
P 1150 1900
F 0 "C1" H 1175 2000 50  0000 L CNN
F 1 "C" H 1175 1800 50  0000 L CNN
F 2 "Capacitors_SMD:C_0603_HandSoldering" H 1188 1750 50  0001 C CNN
F 3 "" H 1150 1900 50  0000 C CNN
	1    1150 1900
	-1   0    0    1   
$EndComp
$Comp
L GNDD #PWR03
U 1 1 56F9DAB9
P 1150 2100
F 0 "#PWR03" H 1150 1850 50  0001 C CNN
F 1 "GNDD" H 1150 1950 50  0000 C CNN
F 2 "" H 1150 2100 50  0000 C CNN
F 3 "" H 1150 2100 50  0000 C CNN
	1    1150 2100
	1    0    0    -1  
$EndComp
$Comp
L Crystal Y1
U 1 1 56F9DBFE
P 4700 2400
F 0 "Y1" H 4700 2550 50  0000 C CNN
F 1 "Crystal" H 4700 2250 50  0000 C CNN
F 2 "Crystals:crystal_FA238-TSX3225" H 4700 2400 50  0001 C CNN
F 3 "" H 4700 2400 50  0000 C CNN
	1    4700 2400
	0    -1   -1   0   
$EndComp
$Comp
L C C2
U 1 1 56F9DCCF
P 4950 2150
F 0 "C2" H 4975 2250 50  0000 L CNN
F 1 "C" H 4975 2050 50  0000 L CNN
F 2 "Capacitors_SMD:C_0603_HandSoldering" H 4988 2000 50  0001 C CNN
F 3 "" H 4950 2150 50  0000 C CNN
	1    4950 2150
	0    1    1    0   
$EndComp
$Comp
L C C3
U 1 1 56F9DD92
P 4950 2650
F 0 "C3" H 4975 2750 50  0000 L CNN
F 1 "C" H 4975 2550 50  0000 L CNN
F 2 "Capacitors_SMD:C_0603_HandSoldering" H 4988 2500 50  0001 C CNN
F 3 "" H 4950 2650 50  0000 C CNN
	1    4950 2650
	0    1    1    0   
$EndComp
$Comp
L GNDD #PWR04
U 1 1 56F9E183
P 5200 2750
F 0 "#PWR04" H 5200 2500 50  0001 C CNN
F 1 "GNDD" H 5200 2600 50  0000 C CNN
F 2 "" H 5200 2750 50  0000 C CNN
F 3 "" H 5200 2750 50  0000 C CNN
	1    5200 2750
	1    0    0    -1  
$EndComp
$Comp
L CONN_02X03 P1
U 1 1 56F9E60F
P 2500 1300
F 0 "P1" H 2500 1500 50  0000 C CNN
F 1 "ISP" H 2500 1100 50  0000 C CNN
F 2 "Pin_Headers:Pin_Header_Straight_2x03" H 2500 100 50  0001 C CNN
F 3 "" H 2500 100 50  0000 C CNN
	1    2500 1300
	1    0    0    -1  
$EndComp
Text Label 2250 1200 2    60   ~ 0
MEGA_IO12/MISO
Text Label 2250 1400 2    60   ~ 0
MEGA_RST
$Comp
L GNDD #PWR05
U 1 1 56F9E92F
P 2800 1450
F 0 "#PWR05" H 2800 1200 50  0001 C CNN
F 1 "GNDD" H 2800 1300 50  0000 C CNN
F 2 "" H 2800 1450 50  0000 C CNN
F 3 "" H 2800 1450 50  0000 C CNN
	1    2800 1450
	1    0    0    -1  
$EndComp
$Comp
L VCC #PWR06
U 1 1 56F9E94F
P 2800 1150
F 0 "#PWR06" H 2800 1000 50  0001 C CNN
F 1 "VCC" H 2800 1300 50  0000 C CNN
F 2 "" H 2800 1150 50  0000 C CNN
F 3 "" H 2800 1150 50  0000 C CNN
	1    2800 1150
	1    0    0    -1  
$EndComp
Text Label 3350 2050 0    60   ~ 0
MEGA_IO11/MOSI
Text Label 3350 2250 0    60   ~ 0
MEGA_IO13/SCK
Text Label 8200 3250 0    60   ~ 0
MEGA_IO7
Text Label 8200 3150 0    60   ~ 0
MEGA_IO6
Text Label 8200 3050 0    60   ~ 0
MEGA_IO5
Text Label 8200 2950 0    60   ~ 0
MEGA_IO4
Text Label 8200 2850 0    60   ~ 0
MEGA_IO3
Text Label 8200 2750 0    60   ~ 0
MEGA_I02
Text Label 8200 2650 0    60   ~ 0
MEGA_IO1/TX
Text Label 8200 2550 0    60   ~ 0
MEGA_IO0/RX
Text Label 8200 3750 0    60   ~ 0
MEGA_IO12/MISO
Text Label 8200 3550 0    60   ~ 0
MEGA_IO10/SS
Text Label 8200 3450 0    60   ~ 0
MEGA_IO9
Text Label 8200 3350 0    60   ~ 0
MEGA_IO8
Text Label 8200 3650 0    60   ~ 0
MEGA_IO11/MOSI
Text Label 8200 3850 0    60   ~ 0
MEGA_IO13/SCK
$Comp
L VCC #PWR07
U 1 1 56F9FF42
P 8350 3950
F 0 "#PWR07" H 8350 3800 50  0001 C CNN
F 1 "VCC" V 8350 4150 50  0000 C CNN
F 2 "" H 8350 3950 50  0000 C CNN
F 3 "" H 8350 3950 50  0000 C CNN
	1    8350 3950
	0    1    1    0   
$EndComp
Text Label 7650 3150 2    60   ~ 0
MEGA_RST
Text Label 7650 3850 2    60   ~ 0
MEGA_ADC5/SCL
Text Label 7650 3750 2    60   ~ 0
MEGA_ADC4/SDA
Text Label 7650 3650 2    60   ~ 0
MEGA_ADC3
Text Label 7650 3550 2    60   ~ 0
MEGA_ADC2
Text Label 7650 3450 2    60   ~ 0
MEGA_ADC1
Text Label 7650 3350 2    60   ~ 0
MEGA_ADC0
Text Label 7650 3250 2    60   ~ 0
MEGA_AREF
$Comp
L GNDD #PWR08
U 1 1 56FA018E
P 8300 4150
F 0 "#PWR08" H 8300 3900 50  0001 C CNN
F 1 "GNDD" H 8300 4000 50  0000 C CNN
F 2 "" H 8300 4150 50  0000 C CNN
F 3 "" H 8300 4150 50  0000 C CNN
	1    8300 4150
	1    0    0    -1  
$EndComp
Text Label 3350 2350 0    60   ~ 0
MEGA_CLKA
Text Label 3350 2450 0    60   ~ 0
MEGA_CLKB
$Comp
L R R1
U 1 1 56FA0822
P 4250 3050
F 0 "R1" V 4330 3050 50  0000 C CNN
F 1 "1K" V 4250 3050 50  0000 C CNN
F 2 "Resistors_SMD:R_0603_HandSoldering" V 4180 3050 50  0001 C CNN
F 3 "" H 4250 3050 50  0000 C CNN
	1    4250 3050
	1    0    0    -1  
$EndComp
$Comp
L VCC #PWR09
U 1 1 56FA085F
P 4250 2850
F 0 "#PWR09" H 4250 2700 50  0001 C CNN
F 1 "VCC" H 4250 3000 50  0000 C CNN
F 2 "" H 4250 2850 50  0000 C CNN
F 3 "" H 4250 2850 50  0000 C CNN
	1    4250 2850
	1    0    0    -1  
$EndComp
$Comp
L D D1
U 1 1 56FA256C
P 4500 3050
F 0 "D1" H 4500 3150 50  0000 C CNN
F 1 "D" H 4500 2950 50  0000 C CNN
F 2 "Diodes_SMD:DO-214AB_Handsoldering" H 4500 3050 50  0001 C CNN
F 3 "" H 4500 3050 50  0000 C CNN
	1    4500 3050
	0    1    1    0   
$EndComp
$Comp
L SW_PUSH SW1
U 1 1 56FA2611
P 4350 3550
F 0 "SW1" H 4500 3660 50  0000 C CNN
F 1 "SW_PUSH" H 4350 3470 50  0000 C CNN
F 2 "Buttons_Switches_SMD:SW_SPST_EVQPE1" H 4350 3550 50  0001 C CNN
F 3 "" H 4350 3550 50  0000 C CNN
	1    4350 3550
	0    1    1    0   
$EndComp
$Comp
L GNDD #PWR010
U 1 1 56FA2697
P 4350 3900
F 0 "#PWR010" H 4350 3650 50  0001 C CNN
F 1 "GNDD" H 4350 3750 50  0000 C CNN
F 2 "" H 4350 3900 50  0000 C CNN
F 3 "" H 4350 3900 50  0000 C CNN
	1    4350 3900
	1    0    0    -1  
$EndComp
$Comp
L NRF51822 IC1
U 1 1 56FB17AF
P 3950 5600
F 0 "IC1" H 4050 5600 60  0000 C CNN
F 1 "NRF51822" H 4050 5700 60  0000 C CNN
F 2 "Housings_DFN_QFN:UQFN-48-1EP_6x6mm_Pitch0.4mm" H 3950 5600 60  0001 C CNN
F 3 "" H 3950 5600 60  0000 C CNN
	1    3950 5600
	1    0    0    -1  
$EndComp
Text Notes 5050 3050 0    60   ~ 0
TODO: Test Clock\n
Text Label 2900 5050 2    60   ~ 0
NRF_VCC
Text Label 2900 6150 2    60   ~ 0
NRF_VCC
Text Label 5000 5050 0    60   ~ 0
NRF_VCC
Text Label 5000 5150 0    60   ~ 0
NRF_VCC
$Comp
L GNDD #PWR?
U 1 1 56FB5FC8
P 5500 5450
F 0 "#PWR?" H 5500 5200 50  0001 C CNN
F 1 "GNDD" H 5500 5300 50  0000 C CNN
F 2 "" H 5500 5450 50  0000 C CNN
F 3 "" H 5500 5450 50  0000 C CNN
	1    5500 5450
	1    0    0    -1  
$EndComp
Text Label 3400 6650 3    60   ~ 0
NRF_VSS
Text Label 5000 5350 0    60   ~ 0
NRF_VSS
Text Label 5000 5250 0    60   ~ 0
NRF_VSS
NoConn ~ 2900 5150
$Comp
L CONN_01X16 P?
U 1 1 5743859F
P 8000 3300
F 0 "P?" H 8000 2450 50  0000 C CNN
F 1 "CONN_F" V 8000 4350 50  0000 C CNN
F 2 "" H 8000 3300 50  0000 C CNN
F 3 "" H 8000 3300 50  0000 C CNN
	1    8000 3300
	-1   0    0    1   
$EndComp
$Comp
L CONN_01X16 P?
U 1 1 57438654
P 7850 3300
F 0 "P?" H 7850 4150 50  0000 C CNN
F 1 "CONN_B" V 7850 2250 50  0000 C CNN
F 2 "" H 7850 3300 50  0000 C CNN
F 3 "" H 7850 3300 50  0000 C CNN
	1    7850 3300
	1    0    0    -1  
$EndComp
Text Label 3350 3550 0    60   ~ 0
MEGA_I02
$Comp
L GNDD #PWR?
U 1 1 57439615
P 7500 4150
F 0 "#PWR?" H 7500 3900 50  0001 C CNN
F 1 "GNDD" H 7500 4000 50  0000 C CNN
F 2 "" H 7500 4150 50  0000 C CNN
F 3 "" H 7500 4150 50  0000 C CNN
	1    7500 4150
	1    0    0    -1  
$EndComp
$Comp
L VCC #PWR?
U 1 1 5743964D
P 7450 3950
F 0 "#PWR?" H 7450 3800 50  0001 C CNN
F 1 "VCC" V 7450 4150 50  0000 C CNN
F 2 "" H 7450 3950 50  0000 C CNN
F 3 "" H 7450 3950 50  0000 C CNN
	1    7450 3950
	0    -1   -1   0   
$EndComp
Text Label 7650 2550 2    60   ~ 0
VIN
Text Label 7750 1200 0    60   ~ 0
VBAT
Text Label 2900 5450 2    60   ~ 0
VBAT
Wire Wire Line
	1150 1750 1350 1750
Wire Wire Line
	1350 1750 1450 1750
Wire Wire Line
	1350 1650 1350 1750
Wire Wire Line
	1350 1750 1350 1850
Wire Wire Line
	1350 1850 1350 2050
Wire Wire Line
	1350 1850 1450 1850
Wire Wire Line
	1350 2050 1450 2050
Connection ~ 1350 1850
Wire Wire Line
	1400 3850 1450 3850
Wire Wire Line
	1400 3100 1400 3200
Wire Wire Line
	1400 3200 1400 3850
Wire Wire Line
	1400 3850 1400 3950
Wire Wire Line
	1400 3950 1400 4050
Wire Wire Line
	1400 4050 1400 4150
Wire Wire Line
	1400 3950 1450 3950
Wire Wire Line
	1400 4050 1450 4050
Connection ~ 1400 3950
Wire Wire Line
	1450 3100 1400 3100
Wire Wire Line
	1400 3200 1450 3200
Connection ~ 1400 3850
Connection ~ 1400 3200
Connection ~ 1400 4050
Connection ~ 1350 1750
Wire Wire Line
	1150 2100 1150 2050
Wire Wire Line
	4700 2250 4700 2150
Wire Wire Line
	4450 2150 4700 2150
Wire Wire Line
	4700 2150 4800 2150
Wire Wire Line
	4450 2650 4700 2650
Wire Wire Line
	4700 2650 4800 2650
Wire Wire Line
	4700 2650 4700 2550
Wire Wire Line
	5100 2150 5200 2150
Wire Wire Line
	5200 2150 5200 2650
Wire Wire Line
	5200 2650 5200 2750
Wire Wire Line
	5200 2650 5100 2650
Connection ~ 4700 2650
Connection ~ 4700 2150
Wire Wire Line
	3350 2350 4450 2350
Wire Wire Line
	4450 2350 4450 2150
Wire Wire Line
	4450 2650 4450 2450
Wire Wire Line
	4450 2450 3350 2450
Connection ~ 5200 2650
Wire Wire Line
	2800 1200 2800 1150
Wire Wire Line
	2800 1200 2750 1200
Wire Wire Line
	2750 1400 2800 1400
Wire Wire Line
	2800 1400 2800 1450
Wire Wire Line
	3350 3200 4250 3200
Wire Wire Line
	4250 3200 4350 3200
Wire Wire Line
	4350 3200 4500 3200
Wire Wire Line
	4250 2850 4250 2900
Connection ~ 4250 3200
Wire Wire Line
	4250 2900 4500 2900
Wire Wire Line
	4350 3200 4350 3250
Connection ~ 4350 3200
Wire Wire Line
	4350 3900 4350 3850
Wire Wire Line
	3400 6650 3400 5800
Wire Wire Line
	3400 5800 3750 5800
Wire Wire Line
	5500 5250 5500 5350
Wire Wire Line
	5500 5350 5500 5450
Wire Wire Line
	5500 5350 5000 5350
Wire Wire Line
	5500 5250 5000 5250
Connection ~ 5500 5350
Wire Wire Line
	8350 3950 8200 3950
Wire Wire Line
	8200 4050 8300 4050
Wire Wire Line
	8300 4050 8300 4150
Wire Wire Line
	7500 4150 7500 4050
Wire Wire Line
	7500 4050 7650 4050
Wire Wire Line
	7450 3950 7650 3950
$Sheet
S 6850 1100 800  200 
U 575E14D1
F0 "Power Unit" 60
F1 "blueduino_power_unit.sch" 60
F2 "PWR_IN" I L 6850 1200 60 
F3 "VBAT" O R 7650 1200 60 
$EndSheet
Text Label 6750 1200 2    60   ~ 0
VIN
Text Label 7650 2650 2    60   ~ 0
VBAT
Wire Wire Line
	7750 1200 7650 1200
Wire Wire Line
	6850 1200 6750 1200
$Comp
L R R?
U 1 1 575E0D56
P 3500 6850
F 0 "R?" V 3550 7000 50  0000 C CNN
F 1 "1K" V 3500 6850 50  0000 C CNN
F 2 "" V 3430 6850 50  0000 C CNN
F 3 "" H 3500 6850 50  0000 C CNN
	1    3500 6850
	1    0    0    -1  
$EndComp
$Comp
L R R?
U 1 1 575E0EB9
P 3600 6850
F 0 "R?" V 3650 6700 50  0000 C CNN
F 1 "1K" V 3600 6850 50  0000 C CNN
F 2 "" V 3530 6850 50  0000 C CNN
F 3 "" H 3600 6850 50  0000 C CNN
	1    3600 6850
	1    0    0    1   
$EndComp
$Comp
L R R?
U 1 1 575E0EFF
P 3700 6850
F 0 "R?" V 3750 6700 50  0000 C CNN
F 1 "1K" V 3700 6850 50  0000 C CNN
F 2 "" V 3630 6850 50  0000 C CNN
F 3 "" H 3700 6850 50  0000 C CNN
	1    3700 6850
	1    0    0    1   
$EndComp
$Comp
L R R?
U 1 1 575E126A
P 3900 6850
F 0 "R?" V 3950 6700 50  0000 C CNN
F 1 "1K" V 3900 6850 50  0000 C CNN
F 2 "" V 3830 6850 50  0000 C CNN
F 3 "" H 3900 6850 50  0000 C CNN
	1    3900 6850
	1    0    0    1   
$EndComp
$Comp
L R R?
U 1 1 575E12BA
P 4000 6850
F 0 "R?" V 4050 6700 50  0000 C CNN
F 1 "1K" V 4000 6850 50  0000 C CNN
F 2 "" V 3930 6850 50  0000 C CNN
F 3 "" H 4000 6850 50  0000 C CNN
	1    4000 6850
	1    0    0    1   
$EndComp
Wire Wire Line
	3500 6650 3500 6700
Wire Wire Line
	3600 6650 3600 6700
Wire Wire Line
	3700 6700 3700 6650
Wire Wire Line
	3900 6650 3900 6700
Wire Wire Line
	4000 6650 4000 6700
Text Label 3500 7000 3    60   ~ 0
MEGA_IO12/MISO
Text Label 3600 7000 3    60   ~ 0
MEGA_IO11/MOSI
Text Label 3700 7000 3    60   ~ 0
MEGA_IO13/SCK
Wire Wire Line
	3800 6650 3800 7000
Text Label 3800 7000 3    60   ~ 0
MEGA_RST
Text Label 3900 7000 3    60   ~ 0
MEGA_IO1/TX
Text Label 4000 7000 3    60   ~ 0
MEGA_IO0/RX
$Comp
L CONN_02X02 P?
U 1 1 575E4D43
P 4450 6950
F 0 "P?" V 4450 6800 50  0000 C CNN
F 1 "nRF_PRG" V 4450 7250 50  0000 C CNN
F 2 "" H 4450 5750 50  0000 C CNN
F 3 "" H 4450 5750 50  0000 C CNN
	1    4450 6950
	0    1    1    0   
$EndComp
Wire Wire Line
	4400 6700 4400 6650
Wire Wire Line
	4500 6700 4500 6650
Text Notes 4550 6800 0    60   ~ 0
Unpopulated surface header
$EndSCHEMATC
