EESchema Schematic File Version 2
LIBS:power
LIBS:device
LIBS:transistors
LIBS:conn
LIBS:linear
LIBS:regul
LIBS:74xx
LIBS:cmos4000
LIBS:adc-dac
LIBS:memory
LIBS:xilinx
LIBS:microcontrollers
LIBS:dsp
LIBS:microchip
LIBS:analog_switches
LIBS:motorola
LIBS:texas
LIBS:intel
LIBS:audio
LIBS:interface
LIBS:digital-audio
LIBS:philips
LIBS:display
LIBS:cypress
LIBS:siliconi
LIBS:opto
LIBS:atmel
LIBS:contrib
LIBS:valves
LIBS:NRF51822
LIBS:blueduino-cache
EELAYER 25 0
EELAYER END
$Descr A4 11693 8268
encoding utf-8
Sheet 2 2
Title ""
Date ""
Rev ""
Comp ""
Comment1 ""
Comment2 ""
Comment3 ""
Comment4 ""
$EndDescr
$Comp
L Battery BT?
U 1 1 575E1F48
P 6200 2100
F 0 "BT?" H 6300 2150 50  0000 L CNN
F 1 "Battery" H 6300 2050 50  0000 L CNN
F 2 "" V 6200 2140 50  0000 C CNN
F 3 "" V 6200 2140 50  0000 C CNN
	1    6200 2100
	1    0    0    -1  
$EndComp
$Comp
L MCP6004 U?
U 1 1 575E1F4F
P 7050 1900
F 0 "U?" H 7100 2100 50  0000 C CNN
F 1 "MCP6004" H 7200 1700 50  0000 C CNN
F 2 "" H 7000 2000 50  0000 C CNN
F 3 "" H 7100 2100 50  0000 C CNN
	1    7050 1900
	1    0    0    -1  
$EndComp
$Comp
L GNDD #PWR?
U 1 1 575E1F56
P 6950 2750
F 0 "#PWR?" H 6950 2500 50  0001 C CNN
F 1 "GNDD" H 6950 2600 50  0000 C CNN
F 2 "" H 6950 2750 50  0000 C CNN
F 3 "" H 6950 2750 50  0000 C CNN
	1    6950 2750
	1    0    0    -1  
$EndComp
$Comp
L VCC #PWR?
U 1 1 575E1F5C
P 6950 1550
F 0 "#PWR?" H 6950 1400 50  0001 C CNN
F 1 "VCC" H 6950 1700 50  0000 C CNN
F 2 "" H 6950 1550 50  0000 C CNN
F 3 "" H 6950 1550 50  0000 C CNN
	1    6950 1550
	1    0    0    -1  
$EndComp
$Comp
L R R?
U 1 1 575E1F62
P 6700 2500
F 0 "R?" V 6780 2500 50  0000 C CNN
F 1 "R" V 6700 2500 50  0000 C CNN
F 2 "" V 6630 2500 50  0000 C CNN
F 3 "" H 6700 2500 50  0000 C CNN
	1    6700 2500
	1    0    0    -1  
$EndComp
$Comp
L R R?
U 1 1 575E1F69
P 7450 2100
F 0 "R?" V 7530 2100 50  0000 C CNN
F 1 "R" V 7450 2100 50  0000 C CNN
F 2 "" V 7380 2100 50  0000 C CNN
F 3 "" H 7450 2100 50  0000 C CNN
	1    7450 2100
	1    0    0    -1  
$EndComp
$Comp
L NCP1117ST33T3G U?
U 1 1 575E1F71
P 4200 2000
F 0 "U?" H 4200 2250 50  0000 C CNN
F 1 "NCP1117ST33T3G" H 4200 2200 50  0000 C CNN
F 2 "" H 4200 2000 50  0000 C CNN
F 3 "" H 4200 2000 50  0000 C CNN
	1    4200 2000
	1    0    0    -1  
$EndComp
$Comp
L VCC #PWR?
U 1 1 575E1F86
P 4650 1900
F 0 "#PWR?" H 4650 1750 50  0001 C CNN
F 1 "VCC" H 4650 2050 50  0000 C CNN
F 2 "" H 4650 1900 50  0000 C CNN
F 3 "" H 4650 1900 50  0000 C CNN
	1    4650 1900
	-1   0    0    -1  
$EndComp
$Comp
L GNDD #PWR?
U 1 1 575E1F8C
P 4400 2500
F 0 "#PWR?" H 4400 2250 50  0001 C CNN
F 1 "GNDD" H 4400 2350 50  0000 C CNN
F 2 "" H 4400 2500 50  0000 C CNN
F 3 "" H 4400 2500 50  0000 C CNN
	1    4400 2500
	-1   0    0    -1  
$EndComp
$Comp
L ZENER D?
U 1 1 575E1F92
P 4650 2200
F 0 "D?" H 4650 2300 50  0000 C CNN
F 1 "ZENER" H 4650 2100 50  0000 C CNN
F 2 "" H 4650 2200 50  0000 C CNN
F 3 "" H 4650 2200 50  0000 C CNN
	1    4650 2200
	0    -1   1    0   
$EndComp
Text Notes 4800 2200 0    60   Italic 0
VCC OVERVOLTAGE\nPROTECTION
Wire Wire Line
	6950 1600 6950 1550
Wire Wire Line
	6950 2200 6950 2750
Wire Wire Line
	6200 2700 6950 2700
Wire Wire Line
	6700 2700 6700 2650
Connection ~ 6950 2700
Wire Wire Line
	7350 1900 7600 1900
Wire Wire Line
	7450 1950 7450 1900
Connection ~ 7450 1900
Wire Wire Line
	6700 2000 6700 2350
Wire Wire Line
	6700 2000 6750 2000
Wire Wire Line
	6200 2700 6200 2250
Connection ~ 6700 2700
Wire Wire Line
	6200 1950 6200 1800
Wire Wire Line
	6050 1800 6750 1800
Wire Wire Line
	4600 1950 4650 1950
Wire Wire Line
	4650 1900 4650 2000
Wire Wire Line
	4200 2250 4200 2450
Wire Wire Line
	7450 2250 7450 2300
Wire Wire Line
	7450 2300 6700 2300
Connection ~ 6700 2300
Text HLabel 3050 1950 0    60   Input ~ 0
PWR_IN
Text HLabel 7600 1900 2    60   Output ~ 0
VBAT
Text Label 6050 1800 2    60   ~ 0
BAT+
Connection ~ 6200 1800
Connection ~ 4650 1950
Wire Wire Line
	4650 2400 4650 2450
Wire Wire Line
	4650 2450 4200 2450
Wire Wire Line
	4400 2500 4400 2450
Connection ~ 4400 2450
$EndSCHEMATC
